…
```r
miss_var_summary(global_sharks)
```

```
## # A tibble: 21 × 3
##    variable n_miss pct_miss
##    <chr>     <int>    <dbl>
##  1 time       3518    51.1 
##  2 species    3118    45.3 
##  3 age        2982    43.3 
##  4 activity    586     8.51
##  5 sex         572     8.30
##  6 location    565     8.20
##  7 area        481     6.98
##  8 date        305     4.43
##  9 name        220     3.19
## 10 year        132     1.92
## # ℹ 11 more rows
```
…
```r
greatwhites <- global_sharks %>% 
  filter(str_detect(species, "White shark"))
```


```r
greatwhites %>% 
  count(country) %>% 
  arrange(-n)
```

```
## # A tibble: 36 × 2
##    country          n
##    <chr>        <int>
##  1 USA            150
##  2 AUSTRALIA      132
##  3 SOUTH AFRICA   124
##  4 ITALY           16
##  5 NEW ZEALAND     16
##  6 CROATIA          9
##  7 GREECE           4
##  8 CHILE            3
##  9 BAHAMAS          2
## 10 CANADA           2
## # ℹ 26 more rows
```
…
