…
3. (3 points) Are there any "hotspots" for shark incidents in California? Make a plot that shows the total number of incidents per county. Which county has the highest number of incidents?

```r
sharks %>% 
  group_by(county) %>% 
  summarize(incident_num=n(), .groups = 'keep') %>% 
  arrange(desc(incident_num))
```

```
## # A tibble: 21 × 2
## # Groups:   county [21]
##    county          incident_num
##    <chr>                  <int>
##  1 San Diego                 23
##  2 Santa Barbara             19
##  3 Humboldt                  18
##  4 San Mateo                 18
##  5 Marin                     16
##  6 Monterey                  15
##  7 Santa Cruz                15
##  8 Sonoma                    15
##  9 San Luis Obispo           14
## 10 Los Angeles                9
## # ℹ 11 more rows
```
…
5. (3 points) How do the number and types of injuries compare by county? Make a table (not a plot) that shows the number of injury types by county. Which county has the highest number of fatalities?  

```r
sharks %>% 
  select(county,mode,incident_num) %>%
  group_by(mode, county) %>% 
  summarize(incident_num=n(), .groups = 'keep')
```

```
## # A tibble: 64 × 3
## # Groups:   mode, county [64]
##    mode       county              incident_num
##    <chr>      <chr>                      <int>
##  1 Freediving Humboldt                       1
##  2 Freediving Island - Santa Cruz            1
##  3 Freediving Los Angeles                    2
##  4 Freediving Marin                          9
##  5 Freediving Mendocino                      5
##  6 Freediving Monterey                       4
##  7 Freediving San Diego                      6
##  8 Freediving San Mateo                      3
##  9 Freediving Santa Barbara                  1
## 10 Freediving Sonoma                         3
## # ℹ 54 more rows
```
…
9. (3 points) Are all incidents involving Great White's fatal? Make a plot that shows the number and types of injuries for Great White's only.  

```r
sharks %>% 
  select(incident_num,injury,species) %>% 
  filter(species=="White")
```

```
## # A tibble: 179 × 3
##    incident_num injury species
##    <chr>        <chr>  <chr>  
##  1 1            major  White  
##  2 2            minor  White  
##  3 3            fatal  White  
##  4 4            minor  White  
##  5 5            major  White  
##  6 6            fatal  White  
##  7 7            major  White  
##  8 8            fatal  White  
##  9 9            fatal  White  
## 10 11           none   White  
## # ℹ 169 more rows
```
…
