…
```r
homerange
```

```
## # A tibble: 569 × 24
##    taxon        common.name class order family genus species primarymethod N    
##    <chr>        <chr>       <chr> <chr> <chr>  <chr> <chr>   <chr>         <chr>
##  1 lake fishes  american e… acti… angu… angui… angu… rostra… telemetry     16   
##  2 river fishes blacktail … acti… cypr… catos… moxo… poecil… mark-recaptu… <NA> 
##  3 river fishes central st… acti… cypr… cypri… camp… anomal… mark-recaptu… 20   
##  4 river fishes rosyside d… acti… cypr… cypri… clin… fundul… mark-recaptu… 26   
##  5 river fishes longnose d… acti… cypr… cypri… rhin… catara… mark-recaptu… 17   
##  6 river fishes muskellunge acti… esoc… esoci… esox  masqui… telemetry     5    
##  7 marine fish… pollack     acti… gadi… gadid… poll… pollac… telemetry     2    
##  8 marine fish… saithe      acti… gadi… gadid… poll… virens  telemetry     2    
##  9 marine fish… lined surg… acti… perc… acant… acan… lineat… direct obser… <NA> 
## 10 marine fish… orangespin… acti… perc… acant… naso  litura… telemetry     8    
## # ℹ 559 more rows
## # ℹ 15 more variables: mean.mass.g <dbl>, log10.mass <dbl>,
## #   alternative.mass.reference <chr>, mean.hra.m2 <dbl>, log10.hra <dbl>,
## #   hra.reference <chr>, realm <chr>, thermoregulation <chr>, locomotion <chr>,
## #   trophic.guild <chr>, dimension <dbl>, preymass <dbl>, log10.preymass <dbl>,
## #   PPMR <dbl>, prey.size.reference <chr>
```
…
```r
taxa <- select(homerange, "taxon","common.name","class","order","family","genus","species")
taxa
```

```
## # A tibble: 569 × 7
##    taxon         common.name             class        order family genus species
##    <fct>         <chr>                   <chr>        <fct> <chr>  <chr> <chr>  
##  1 lake fishes   american eel            actinoptery… angu… angui… angu… rostra…
##  2 river fishes  blacktail redhorse      actinoptery… cypr… catos… moxo… poecil…
##  3 river fishes  central stoneroller     actinoptery… cypr… cypri… camp… anomal…
##  4 river fishes  rosyside dace           actinoptery… cypr… cypri… clin… fundul…
##  5 river fishes  longnose dace           actinoptery… cypr… cypri… rhin… catara…
##  6 river fishes  muskellunge             actinoptery… esoc… esoci… esox  masqui…
##  7 marine fishes pollack                 actinoptery… gadi… gadid… poll… pollac…
##  8 marine fishes saithe                  actinoptery… gadi… gadid… poll… virens 
##  9 marine fishes lined surgeonfish       actinoptery… perc… acant… acan… lineat…
## 10 marine fishes orangespine unicornfish actinoptery… perc… acant… naso  litura…
## # ℹ 559 more rows
```
…
**6. The species in `homerange` are also classified into trophic guilds. How many species are represented in each trophic guild.**  

```r
select(homerange, "species","trophic.guild")
```

```
## # A tibble: 569 × 2
##    species     trophic.guild
##    <chr>       <chr>        
##  1 rostrata    carnivore    
##  2 poecilura   carnivore    
##  3 anomalum    carnivore    
##  4 funduloides carnivore    
##  5 cataractae  carnivore    
##  6 masquinongy carnivore    
##  7 pollachius  carnivore    
##  8 virens      carnivore    
##  9 lineatus    herbivore    
## 10 lituratus   herbivore    
## # ℹ 559 more rows
```
…
```r
largest_homerange <- select(homerange, "mean.hra.m2", "species", "class", "common.name")
aves <- filter(largest_homerange, class == "aves")
```


```r
aves %>% 
  arrange(desc(mean.hra.m2)) 
```

```
## # A tibble: 140 × 4
##    mean.hra.m2 species      class common.name           
##          <dbl> <chr>        <chr> <chr>                 
##  1   241000000 cheriway     aves  caracara              
##  2   200980000 pygargus     aves  Montagu's harrier     
##  3   153860000 peregrinus   aves  peregrine falcon      
##  4   117300000 pennatus     aves  booted eagle          
##  5    84300000 camelus      aves  ostrich               
##  6    78500000 gallicus     aves  short-toed snake eagle
##  7    63585000 turtur       aves  European turtle dove  
##  8    63570000 percnopterus aves  Egyptian vulture      
##  9    50240000 buteo        aves  common buzzard        
## 10    50000000 biarmicus    aves  lanner falcon         
## # ℹ 130 more rows
```
…
