…
2. Use `janitor` to rename the columns and make them easier to use. As part of this cleaning step, change `country`, `isscaap_group_number`, `asfis_species_number`, and `fao_major_fishing_area` to data class factor. 

```r
fisheries <- fisheries %>% 
  clean_names() %>% 
  mutate(country=as.factor(country),
         isscaap_group_number=as.factor(isscaap_group_number),
         asfis_species_number=as.factor(asfis_species_number),
         fao_major_fishing_area=as.factor(fao_major_fishing_area))
fisheries
```

```
## # A tibble: 17,692 × 71
##    country common_name               isscaap_group_number isscaap_taxonomic_gr…¹
##    <fct>   <chr>                     <fct>                <chr>                 
##  1 Albania Angelsharks, sand devils… 38                   Sharks, rays, chimaer…
##  2 Albania Atlantic bonito           36                   Tunas, bonitos, billf…
##  3 Albania Barracudas nei            37                   Miscellaneous pelagic…
##  4 Albania Blue and red shrimp       45                   Shrimps, prawns       
##  5 Albania Blue whiting(=Poutassou)  32                   Cods, hakes, haddocks 
##  6 Albania Bluefish                  37                   Miscellaneous pelagic…
##  7 Albania Bogue                     33                   Miscellaneous coastal…
##  8 Albania Caramote prawn            45                   Shrimps, prawns       
##  9 Albania Catsharks, nursehounds n… 38                   Sharks, rays, chimaer…
## 10 Albania Common cuttlefish         57                   Squids, cuttlefishes,…
## # ℹ 17,682 more rows
## # ℹ abbreviated name: ¹​isscaap_taxonomic_group
## # ℹ 67 more variables: asfis_species_number <fct>, asfis_species_name <chr>,
## #   fao_major_fishing_area <fct>, measure <chr>, x1950 <chr>, x1951 <chr>,
## #   x1952 <chr>, x1953 <chr>, x1954 <chr>, x1955 <chr>, x1956 <chr>,
## #   x1957 <chr>, x1958 <chr>, x1959 <chr>, x1960 <chr>, x1961 <chr>,
## #   x1962 <chr>, x1963 <chr>, x1964 <chr>, x1965 <chr>, x1966 <chr>, …
```
…
fisheries_tidy$catch <- as.numeric(fisheries_tidy$catch)
```

3. How many countries are represented in the data? Provide a count and list their names.

```r
fisheries_tidy %>% 
  count(country, sort = T)
```

```
## # A tibble: 203 × 2
##    country                      n
##    <fct>                    <int>
##  1 United States of America 18080
##  2 Spain                    17482
##  3 Japan                    15429
##  4 Portugal                 11570
##  5 Korea, Republic of       10824
##  6 France                   10639
##  7 Taiwan Province of China  9927
##  8 Indonesia                 9274
##  9 Australia                 8183
## 10 Un. Sov. Soc. Rep.        7084
## # ℹ 193 more rows
```
…
6. Which country had the largest overall catch in the year 2000?

```r
focus_data %>% 
  filter(year=="2000") %>% 
  arrange(desc(catch))
```

```
## # A tibble: 8,793 × 6
##    country  isscaap_taxonomic_gr…¹ asfis_species_name asfis_species_number  year
##    <fct>    <chr>                  <chr>              <fct>                <dbl>
##  1 China    Marine fishes not ide… Osteichthyes       199XXXXXXX010         2000
##  2 Peru     Herrings, sardines, a… Engraulis ringens  1210600208            2000
##  3 Russian… Cods, hakes, haddocks  Theragra chalcogr… 1480401601            2000
##  4 Viet Nam Marine fishes not ide… Osteichthyes       199XXXXXXX010         2000
##  5 Chile    Miscellaneous pelagic… Trachurus murphyi  1702300405            2000
##  6 China    Miscellaneous marine … Mollusca           399XXXXXXX016         2000
##  7 China    Miscellaneous demersa… Trichiurus leptur… 1750600302            2000
##  8 United … Cods, hakes, haddocks  Theragra chalcogr… 1480401601            2000
##  9 China    Miscellaneous marine … Crustacea          299XXXXXXX013         2000
## 10 Philipp… Miscellaneous pelagic… Decapterus spp     17023043XX            2000
## # ℹ 8,783 more rows
## # ℹ abbreviated name: ¹​isscaap_taxonomic_group
## # ℹ 1 more variable: catch <dbl>
```
…
7. Which country caught the most sardines (_Sardina pilchardus_) between the years 1990-2000?

think i need to sum


```r
focus_data %>% 
  filter(asfis_species_name=="Sardina pilchardus") %>% 
  filter(year>=1990 & year<=2000) %>% 
  arrange(desc(catch))
```

```
## # A tibble: 336 × 6
##    country  isscaap_taxonomic_gr…¹ asfis_species_name asfis_species_number  year
##    <fct>    <chr>                  <chr>              <fct>                <dbl>
##  1 Morocco  Herrings, sardines, a… Sardina pilchardus 1210506401            1994
##  2 Morocco  Herrings, sardines, a… Sardina pilchardus 1210506401            1996
##  3 Spain    Herrings, sardines, a… Sardina pilchardus 1210506401            1996
##  4 Morocco  Herrings, sardines, a… Sardina pilchardus 1210506401            2000
##  5 Morocco  Herrings, sardines, a… Sardina pilchardus 1210506401            1990
##  6 Morocco  Herrings, sardines, a… Sardina pilchardus 1210506401            1991
##  7 Morocco  Herrings, sardines, a… Sardina pilchardus 1210506401            1998
##  8 Morocco  Herrings, sardines, a… Sardina pilchardus 1210506401            1993
##  9 Russian… Herrings, sardines, a… Sardina pilchardus 1210506401            1992
## 10 Russian… Herrings, sardines, a… Sardina pilchardus 1210506401            1991
## # ℹ 326 more rows
## # ℹ abbreviated name: ¹​isscaap_taxonomic_group
## # ℹ 1 more variable: catch <dbl>
```
…
